            `.:/+oossssso++/-.                                                                                          
         ./osssssssssssssssssss+:`                               This app started with                                                        
      `:osssssssssssssss+::ossssss+-                                                                                    
     :sssssssssssssssso.  `+sssssssso-        `...`               `/-                         ....`                     
   .ossssssssssssssss/   .osssssssssss+`      :so/oo: `` `   ``   ./:   ``     ``` -o+`    `/so////  `` ``    ``    `  `
  :sssssssssssssssss:   .ossssssssssssso.     :s+`:s+`ssoo`/s++s/`-s+ :o+/s/ :oo/+-oso+:   /s/      `ss++s/  +++s+`.sooo
 :sssssssssssssso/-    `/osssssssssssssss.    :so//- `ss` :s/  +s--s+`ss+/++`ss`   -s+     /s/   :o-`ss  ss``://os..so  
`sssssssssssso/.         -osssssssssssssso    :s+    `ss  `+s//s+`-s+ :s+:/: /s+//``os/-    /oo//os-`ss  ss`:s+:os..so  
/ssssssssss+.              -osssssssssssss-   ```     ``    `..` `+s-   `.`    `.`   ..`      `..``  ``  ``  `.```  ``  
ossssssss+.                 :+ssssssssssss/                      `-.                                                    
sssssso.                      /sssssssssss+                                                                      gnar.ca         
osssss+                      `osssssssssss/                                                                             
/ssssso                     :sssssssssssss-                                                                             
`ssssss/                  :sssssssssssssso                                                                              
 :sssssss/-.-:/-`           .:/osssssssss.                                                                              
  :sssssssssssssso/:-.```       /sssssso.                                                                               
   .osssssssssssssssssssssoo++: `sssss+`                                                                                
     :ossssssssssssssssssssssssssssso-                                                                                  
      `:osssssssssssssssssssssssss+-                                                                                    
         .:osssssssssssssssssss+:`                                                                                      
            `.:/+oossssoo++/-.                                                                                          
